{"current_page": 1, "data": {"0": {"id": 190, "nID": 19635, "leader": "manas", "nation": "odisha", "score": 3034, "cities": 23, "soldiers": 0, "tanks": 0, "planes": 2052, "ships": 0, "steel": 18679, "gas": 1763, "aluminum": 4611, "munitions": 17454, "money": 2441488, "food": 352320, "spies": 60, "uranium": 8362, "inBK": 1, "hasSignedIn": 1, "missiles": 0, "nukes": 0, "mmr": 68.5}, "1": {"id": 607, "nID": 55073, "leader": "Michael Allen", "nation": "The Florence Republic", "score": 2720, "cities": 18, "soldiers": 0, "tanks": 0, "planes": 1620, "ships": 0, "steel": 4306, "gas": 3284, "aluminum": 14331, "munitions": 23389, "money": 21971378, "food": 194384, "spies": 60, "uranium": 1457, "inBK": 1, "hasSignedIn": 1, "missiles": 0, "nukes": 0, "mmr": 65.66}, "2": {"id": 627, "nID": 53723, "leader": "Douglas MacArthur", "nation": "America V2", "score": 2668, "cities": 18, "soldiers": 0, "tanks": 0, "planes": 1620, "ships": 0, "steel": 3121, "gas": 8614, "aluminum": 477, "munitions": 10246, "money": 135426000, "food": 66336, "spies": 60, "uranium": 1633, "inBK": 1, "hasSignedIn": 1, "missiles": 0, "nukes": 0, "mmr": 45.98}, "3": {"id": 848, "nID": 82463, "leader": "Messi", "nation": "Ikstova", "score": 2520, "cities": 17, "soldiers": 0, "tanks": 0, "planes": 1530, "ships": 0, "steel": 3297, "gas": 5767, "aluminum": 11948, "munitions": 2403, "money": 50212633, "food": 50912, "spies": 13, "uranium": 114, "inBK": 1, "hasSignedIn": 1, "missiles": 1, "nukes": 0, "mmr": 50.72}, "4": {"id": 898, "nID": 86779, "leader": "Georgius Maximus", "nation": "New Eastern Roman Empire", "score": 3175, "cities": 21, "soldiers": 0, "tanks": 0, "planes": 1890, "ships": 0, "steel": 1821, "gas": 15773, "aluminum": 14894, "munitions": 9130, "money": 52628865, "food": 57713, "spies": 45, "uranium": 1140, "inBK": 1, "hasSignedIn": 1, "missiles": 0, "nukes": 0, "mmr": 70.07}, "5": {"id": 1004, "nID": 80762, "leader": "Shmurda", "nation": "Slavistan", "score": 2455, "cities": 18, "soldiers": 0, "tanks": 0, "planes": 1620, "ships": 0, "steel": 26155, "gas": 4219, "aluminum": 41634, "munitions": 3659, "money": 199983709, "food": 166087, "spies": 36, "uranium": 4494, "inBK": 1, "hasSignedIn": 1, "missiles": 0, "nukes": 0, "mmr": 70.5}, "6": {"id": 1014, "nID": 86901, "leader": "Goodoboy", "nation": "Lexington", "score": 2710, "cities": 18, "soldiers": 0, "tanks": 0, "planes": 1620, "ships": 0, "steel": 10000, "gas": 8554, "aluminum": 10081, "munitions": 10001, "money": 2502923, "food": 210922, "spies": 60, "uranium": 5143, "inBK": 1, "hasSignedIn": 1, "missiles": 10, "nukes": 0, "mmr": 69.85}, "7": {"id": 1021, "nID": 99082, "leader": "Joe I", "nation": "The Kingdom of Nowhere", "score": 2710, "cities": 18, "soldiers": 118800, "tanks": 0, "planes": 1620, "ships": 0, "steel": 17020, "gas": 8141, "aluminum": 11284, "munitions": 2134, "money": 191376990, "food": 55607, "spies": 12, "uranium": 1216, "inBK": 1, "hasSignedIn": 1, "missiles": 0, "nukes": 0, "mmr": 68.75}, "8": {"id": 1042, "nID": 89441, "leader": "Evlar", "nation": "Evlamican Empire", "score": 2867, "cities": 18, "soldiers": 270000, "tanks": 0, "planes": 1620, "ships": 36, "steel": 656, "gas": 9242, "aluminum": 9273, "munitions": 13221, "money": 5678834, "food": 296087, "spies": 28, "uranium": 2699, "inBK": 1, "hasSignedIn": 1, "missiles": 0, "nukes": 0, "mmr": 58.41}, "9": {"id": 1051, "nID": 92983, "leader": "Forseti92", "nation": "NESU", "score": 2724, "cities": 18, "soldiers": 0, "tanks": 0, "planes": 1620, "ships": 12, "steel": 1836, "gas": 4593, "aluminum": 3271, "munitions": 10962, "money": 119831321, "food": 7056, "spies": 45, "uranium": 0, "inBK": 1, "hasSignedIn": 1, "missiles": 0, "nukes": 0, "mmr": 29.93}, "10": {"id": 1054, "nID": 106810, "leader": "lance armstrong", "nation": "sklandia", "score": 1141, "cities": 18, "soldiers": 0, "tanks": 0, "planes": 210, "ships": 0, "steel": 13, "gas": 336, "aluminum": 1843, "munitions": 165, "money": 105935, "food": 0, "spies": 0, "uranium": 0, "inBK": 1, "hasSignedIn": 1, "missiles": 0, "nukes": 0, "mmr": 3.15}, "11": {"id": 1068, "nID": 80836, "leader": "Taco", "nation": "Taco Land", "score": 3030, "cities": 20, "soldiers": 0, "tanks": 0, "planes": 1800, "ships": 0, "steel": 163, "gas": 5040, "aluminum": 5146, "munitions": 2825, "money": 30883680, "food": 872, "spies": 9, "uranium": 848, "inBK": 1, "hasSignedIn": 1, "missiles": 0, "nukes": 0, "mmr": 26.32}, "12": {"id": 1104, "nID": 33644, "leader": "Whiskerz", "nation": "Arfcom", "score": 3245, "cities": 21, "soldiers": 0, "tanks": 0, "planes": 1890, "ships": 0, "steel": 2413, "gas": 7228, "aluminum": 16881, "munitions": 8300, "money": 21024669, "food": 214486, "spies": 60, "uranium": 6085, "inBK": 1, "hasSignedIn": 1, "missiles": 0, "nukes": 6, "mmr": 59.73}, "13": {"id": 1109, "nID": 110520, "leader": "Siegfred the Free", "nation": "Freemen", "score": 2865, "cities": 19, "soldiers": 0, "tanks": 0, "planes": 1710, "ships": 0, "steel": 20, "gas": 11312, "aluminum": 2795, "munitions": 10000, "money": 23894620, "food": 48063, "spies": 56, "uranium": 2589, "inBK": 1, "hasSignedIn": 1, "missiles": 0, "nukes": 0, "mmr": 47.18}, "14": {"id": 1111, "nID": 55556, "leader": "Soter", "nation": "Kingdom of Svearmark", "score": 1134, "cities": 12, "soldiers": 75992, "tanks": 89, "planes": 380, "ships": 10, "steel": 554, "gas": 281, "aluminum": 1, "munitions": 7509, "money": 13374027, "food": 2293, "spies": 8, "uranium": 129, "inBK": 1, "hasSignedIn": 1, "missiles": 0, "nukes": 0, "mmr": 24.46}, "15": {"id": 1142, "nID": 106704, "leader": "Sauce Master", "nation": "Urasaturn", "score": 2825, "cities": 19, "soldiers": 0, "tanks": 0, "planes": 1710, "ships": 0, "steel": 470, "gas": 8222, "aluminum": 7300, "munitions": 27807, "money": 103223137, "food": 14244, "spies": 60, "uranium": 1498, "inBK": 1, "hasSignedIn": 1, "missiles": 0, "nukes": 0, "mmr": 55.04}, "16": {"id": 1161, "nID": 116953, "leader": "Kevin Li", "nation": "SK Telecom T1", "score": 3010, "cities": 20, "soldiers": 0, "tanks": 0, "planes": 1800, "ships": 0, "steel": 1540, "gas": 4632, "aluminum": 12946, "munitions": 15492, "money": 59885336, "food": 106086, "spies": 60, "uranium": 1933, "inBK": 1, "hasSignedIn": 1, "missiles": 0, "nukes": 0, "mmr": 61}, "17": {"id": 1183, "nID": 126185, "leader": "FROG5TAR", "nation": "Frogtopia", "score": 2170, "cities": 16, "soldiers": 0, "tanks": 0, "planes": 1440, "ships": 0, "steel": 1494, "gas": 125, "aluminum": 10498, "munitions": 0, "money": 19395691, "food": 9755, "spies": 23, "uranium": 166, "inBK": 1, "hasSignedIn": 1, "missiles": 0, "nukes": 0, "mmr": 28.08}, "18": {"id": 1213, "nID": 133511, "leader": "shrek", "nation": "Country Ball Comics", "score": 2700, "cities": 18, "soldiers": 0, "tanks": 0, "planes": 1620, "ships": 0, "steel": 18000, "gas": 17350, "aluminum": 18331, "munitions": 19000, "money": 2142040, "food": 13440, "spies": 60, "uranium": 142, "inBK": 1, "hasSignedIn": 1, "missiles": 0, "nukes": 0, "mmr": 89.78}, "19": {"id": 1273, "nID": 149414, "leader": "Woof", "nation": "Woof", "score": 1625, "cities": 11, "soldiers": 0, "tanks": 0, "planes": 990, "ships": 0, "steel": 2053, "gas": 625, "aluminum": 2626, "munitions": 2116, "money": 15936698, "food": 4024, "spies": 2, "uranium": 49, "inBK": 1, "hasSignedIn": 1, "missiles": 0, "nukes": 0, "mmr": 100}, "20": {"id": 1288, "nID": 2813, "leader": "Saeton", "nation": "Icebergia", "score": 3483, "cities": 25, "soldiers": 0, "tanks": 0, "planes": 2250, "ships": 0, "steel": 1638, "gas": 12135, "aluminum": 109, "munitions": 15928, "money": 98062000, "food": 137038, "spies": 60, "uranium": 111, "inBK": 1, "hasSignedIn": 1, "missiles": 0, "nukes": 0, "mmr": 40.09}, "21": {"id": 1334, "nID": 168248, "leader": "jfromstate", "nation": "Justanotherstan", "score": 1735, "cities": 10, "soldiers": 150000, "tanks": 0, "planes": 900, "ships": 100, "steel": 15, "gas": 1293, "aluminum": 5603, "munitions": 1167, "money": 23829571, "food": 19843, "spies": 47, "uranium": 442, "inBK": 1, "hasSignedIn": 1, "missiles": 0, "nukes": 0, "mmr": 100}, "22": {"id": 1364, "nID": 181658, "leader": "Meow The Tabby Cat", "nation": "Meow Meow Republic", "score": 1625, "cities": 11, "soldiers": 0, "tanks": 0, "planes": 990, "ships": 0, "steel": 9419, "gas": 5804, "aluminum": 11398, "munitions": 12560, "money": 230967233, "food": 34052, "spies": 60, "uranium": 1509, "inBK": 1, "hasSignedIn": 1, "missiles": 0, "nukes": 0, "mmr": 100}, "23": {"id": 1366, "nID": 59381, "leader": "Epimetheus", "nation": "Prometheus", "score": 3465, "cities": 23, "soldiers": 0, "tanks": 0, "planes": 2070, "ships": 0, "steel": 395, "gas": 8868, "aluminum": 6262, "munitions": 2529, "money": 161267112, "food": 17297, "spies": 36, "uranium": 1151, "inBK": 1, "hasSignedIn": 1, "missiles": 0, "nukes": 0, "mmr": 38.53}, "24": {"id": 1367, "nID": 128537, "leader": "Arthur 1", "nation": "Camelot 1", "score": 3260, "cities": 22, "soldiers": 0, "tanks": 0, "planes": 1980, "ships": 0, "steel": 2648, "gas": 3274, "aluminum": 4794, "munitions": 6097, "money": 22919760, "food": 48975, "spies": 6, "uranium": 1432, "inBK": 1, "hasSignedIn": 1, "missiles": 0, "nukes": 0, "mmr": 38.3}, "25": {"id": 1368, "nID": 164003, "leader": "Nando", "nation": "Leolandia", "score": 3300, "cities": 22, "soldiers": 0, "tanks": 0, "planes": 1980, "ships": 0, "steel": 369, "gas": 5800, "aluminum": 5094, "munitions": 4577, "money": 37124720, "food": 332107, "spies": 55, "uranium": 1025, "inBK": 1, "hasSignedIn": 1, "missiles": 0, "nukes": 0, "mmr": 36.24}, "26": {"id": 1369, "nID": 12832, "leader": "Kraftus", "nation": "Dept of Defense", "score": 2719, "cities": 17, "soldiers": 249000, "tanks": 500, "planes": 1494, "ships": 120, "steel": 2208, "gas": 3070, "aluminum": 1952, "munitions": 3104, "money": 1792106, "food": 62351, "spies": 6, "uranium": 993, "inBK": 1, "hasSignedIn": 1, "missiles": 1, "nukes": 1, "mmr": 36.7}, "27": {"id": 1370, "nID": 82501, "leader": "Forethought", "nation": "Dabsion", "score": 3010, "cities": 20, "soldiers": 0, "tanks": 0, "planes": 1800, "ships": 0, "steel": 172, "gas": 5301, "aluminum": 11406, "munitions": 3618, "money": 53077634, "food": 33963, "spies": 12, "uranium": 725, "inBK": 1, "hasSignedIn": 1, "missiles": 0, "nukes": 0, "mmr": 39.64}, "28": {"id": 1371, "nID": 109046, "leader": "Hatebi", "nation": "The Overthere", "score": 2716, "cities": 16, "soldiers": 240000, "tanks": 0, "planes": 1440, "ships": 50, "steel": 4681, "gas": 1048, "aluminum": 3788, "munitions": 2480, "money": 363706978, "food": 139333, "spies": 50, "uranium": 2084, "inBK": 1, "hasSignedIn": 1, "missiles": 0, "nukes": 0, "mmr": 41.33}, "29": {"id": 1373, "nID": 119256, "leader": "Fee1s", "nation": "United demorcratic sates", "score": 2229, "cities": 17, "soldiers": 0, "tanks": 0, "planes": 1328, "ships": 1, "steel": 1273, "gas": 4692, "aluminum": 3815, "munitions": 4329, "money": 295367217, "food": 25386, "spies": 8, "uranium": 239, "inBK": 1, "hasSignedIn": 1, "missiles": 5, "nukes": 0, "mmr": 36.24}, "30": {"id": 1374, "nID": 151004, "leader": "Seven", "nation": "Saint Augustine", "score": 2490, "cities": 16, "soldiers": 240000, "tanks": 0, "planes": 1440, "ships": 0, "steel": 37, "gas": 3848, "aluminum": 3816, "munitions": 4420, "money": 26153274, "food": 15253, "spies": 30, "uranium": 867, "inBK": 1, "hasSignedIn": 1, "missiles": 0, "nukes": 0, "mmr": 36.74}, "31": {"id": 1375, "nID": 126928, "leader": "Randomdud", "nation": "New United States Of America", "score": 2480, "cities": 17, "soldiers": 0, "tanks": 0, "planes": 1459, "ships": 0, "steel": 88, "gas": 256, "aluminum": 264, "munitions": 3384, "money": 2716626, "food": 38551, "spies": 0, "uranium": 221, "inBK": 1, "hasSignedIn": 1, "missiles": 0, "nukes": 0, "mmr": 15.24}, "32": {"id": 1377, "nID": 76671, "leader": "Yang_Cheng", "nation": "Democratic Shanghai", "score": 2825, "cities": 19, "soldiers": 0, "tanks": 0, "planes": 1710, "ships": 0, "steel": 1751, "gas": 8814, "aluminum": 7515, "munitions": 1000, "money": 69196609, "food": 14226, "spies": 12, "uranium": 665, "inBK": 1, "hasSignedIn": 1, "missiles": 0, "nukes": 0, "mmr": 36.23}, "33": {"id": 1378, "nID": 136331, "leader": "Thor", "nation": "Asgard", "score": 2225, "cities": 15, "soldiers": 0, "tanks": 0, "planes": 1350, "ships": 0, "steel": 104, "gas": 2737, "aluminum": 6867, "munitions": 3735, "money": 32004303, "food": 55579, "spies": 7, "uranium": 29, "inBK": 1, "hasSignedIn": 1, "missiles": 0, "nukes": 0, "mmr": 32.23}, "34": {"id": 1379, "nID": 49033, "leader": "Democratic Pakistan", "nation": "Democratic Pakistan", "score": 2386, "cities": 17, "soldiers": 0, "tanks": 0, "planes": 1341, "ships": 5, "steel": 5465, "gas": 5890, "aluminum": 13262, "munitions": 1829, "money": 12611175, "food": 257260, "spies": 2, "uranium": 13793, "inBK": 1, "hasSignedIn": 1, "missiles": 0, "nukes": 0, "mmr": 64.1}, "35": {"id": 1380, "nID": 129313, "leader": "Catman", "nation": "Catland", "score": 2004, "cities": 15, "soldiers": 0, "tanks": 0, "planes": 1350, "ships": 0, "steel": 181, "gas": 2019, "aluminum": 3943, "munitions": 1011, "money": 32561314, "food": 25045, "spies": 3, "uranium": 183, "inBK": 1, "hasSignedIn": 1, "missiles": 0, "nukes": 0, "mmr": 21.23}, "36": {"id": 1381, "nID": 147649, "leader": "Kid Cudi", "nation": "Kudiland", "score": 2020, "cities": 14, "soldiers": 0, "tanks": 0, "planes": 1260, "ships": 0, "steel": 2918, "gas": 3075, "aluminum": 5842, "munitions": 3681, "money": 15304624, "food": 115881, "spies": 0, "uranium": 173, "inBK": 1, "hasSignedIn": 1, "missiles": 0, "nukes": 0, "mmr": 39.22}, "37": {"id": 1382, "nID": 130023, "leader": "Juan Hernandez", "nation": "Costa Rica", "score": 1973, "cities": 14, "soldiers": 0, "tanks": 0, "planes": 1260, "ships": 0, "steel": 328, "gas": 3377, "aluminum": 3785, "munitions": 4188, "money": 21962823, "food": 56252, "spies": 4, "uranium": 15, "inBK": 1, "hasSignedIn": 1, "missiles": 0, "nukes": 0, "mmr": 28.67}, "38": {"id": 1383, "nID": 115598, "leader": "Bill Rice", "nation": "Talathalas", "score": 2080, "cities": 14, "soldiers": 0, "tanks": 0, "planes": 1260, "ships": 0, "steel": 0, "gas": 8781, "aluminum": 6639, "munitions": 0, "money": 16786724, "food": 51386, "spies": 60, "uranium": 536, "inBK": 1, "hasSignedIn": 1, "missiles": 0, "nukes": 0, "mmr": 41.2}, "39": {"id": 1384, "nID": 174023, "leader": "Robinson", "nation": "Paradise", "score": 1737, "cities": 13, "soldiers": 195000, "tanks": 0, "planes": 390, "ships": 60, "steel": 1274, "gas": 4884, "aluminum": 5653, "munitions": 2182, "money": 3807772, "food": 47860, "spies": 28, "uranium": 1742, "inBK": 1, "hasSignedIn": 1, "missiles": 0, "nukes": 0, "mmr": 43.62}, "40": {"id": 1385, "nID": 175039, "leader": "Ray", "nation": "Xhunterx", "score": 2060, "cities": 14, "soldiers": 0, "tanks": 0, "planes": 1260, "ships": 0, "steel": 2, "gas": 10195, "aluminum": 7101, "munitions": 13401, "money": 5841306, "food": 84119, "spies": 50, "uranium": 717, "inBK": 1, "hasSignedIn": 1, "missiles": 0, "nukes": 0, "mmr": 66.38}, "41": {"id": 1386, "nID": 152232, "leader": "The USA", "nation": "United Cats of America", "score": 2700, "cities": 18, "soldiers": 0, "tanks": 0, "planes": 1620, "ships": 0, "steel": 5000, "gas": 147, "aluminum": 9304, "munitions": 3301, "money": 456733, "food": 72231, "spies": 60, "uranium": 3603, "inBK": 1, "hasSignedIn": 1, "missiles": 0, "nukes": 0, "mmr": 40.34}, "42": {"id": 1387, "nID": 155829, "leader": "Frigg", "nation": "Vahalla", "score": 1942, "cities": 10, "soldiers": 138000, "tanks": 4750, "planes": 810, "ships": 95, "steel": 6376, "gas": 3967, "aluminum": 4256, "munitions": 397, "money": 35053549, "food": 11963, "spies": 25, "uranium": 2139, "inBK": 1, "hasSignedIn": 1, "missiles": 6, "nukes": 0, "mmr": 100}, "43": {"id": 1388, "nID": 143884, "leader": "Pheonix331", "nation": "Ancients", "score": 1935, "cities": 13, "soldiers": 0, "tanks": 0, "planes": 1170, "ships": 0, "steel": 1616, "gas": 6352, "aluminum": 8082, "munitions": 1882, "money": 29083404, "food": 27031, "spies": 19, "uranium": 810, "inBK": 1, "hasSignedIn": 1, "missiles": 0, "nukes": 0, "mmr": 49.77}, "44": {"id": 1389, "nID": 147442, "leader": "Kassandra", "nation": "Greece AC", "score": 1713, "cities": 13, "soldiers": 0, "tanks": 0, "planes": 1170, "ships": 0, "steel": 0, "gas": 203, "aluminum": 4636, "munitions": 341, "money": 17602184, "food": 9142, "spies": 1, "uranium": 35, "inBK": 1, "hasSignedIn": 1, "missiles": 0, "nukes": 0, "mmr": 13}, "45": {"id": 1390, "nID": 143002, "leader": "BOB the First", "nation": "GMBOB", "score": 1736, "cities": 15, "soldiers": 79444, "tanks": 0, "planes": 636, "ships": 0, "steel": 3116, "gas": 3235, "aluminum": 11986, "munitions": 1720, "money": 45960591, "food": 405266, "spies": 10, "uranium": 587, "inBK": 1, "hasSignedIn": 1, "missiles": 0, "nukes": 0, "mmr": 48.57}, "46": {"id": 1391, "nID": 150945, "leader": "Lukas Langeheuvel", "nation": "Talamh an Eisc", "score": 1763, "cities": 12, "soldiers": 0, "tanks": 0, "planes": 1080, "ships": 0, "steel": 3635, "gas": 7152, "aluminum": 6347, "munitions": 10554, "money": 1641548, "food": 65196, "spies": 60, "uranium": 489, "inBK": 1, "hasSignedIn": 1, "missiles": 0, "nukes": 0, "mmr": 78}, "47": {"id": 1392, "nID": 134401, "leader": "warkeeper", "nation": "Personal Defense Force", "score": 1743, "cities": 16, "soldiers": 0, "tanks": 0, "planes": 198, "ships": 0, "steel": 0, "gas": 801, "aluminum": 1, "munitions": 1000, "money": 4739131, "food": 10181, "spies": 50, "uranium": 436, "inBK": 1, "hasSignedIn": 1, "missiles": 0, "nukes": 0, "mmr": 10.51}, "48": {"id": 1393, "nID": 183140, "leader": "Aero", "nation": "Xrossland", "score": 1525, "cities": 13, "soldiers": 0, "tanks": 0, "planes": 835, "ships": 0, "steel": 811, "gas": 3166, "aluminum": 7613, "munitions": 4357, "money": 62484230, "food": 0, "spies": 1, "uranium": 92, "inBK": 1, "hasSignedIn": 1, "missiles": 0, "nukes": 0, "mmr": 33.22}, "49": {"id": 1394, "nID": 155105, "leader": "Gravity", "nation": "Golden Beauty", "score": 1555, "cities": 12, "soldiers": 99000, "tanks": 0, "planes": 1062, "ships": 0, "steel": 5702, "gas": 2621, "aluminum": 1196, "munitions": 2268, "money": 2405262, "food": 13792, "spies": 0, "uranium": 193, "inBK": 1, "hasSignedIn": 1, "missiles": 0, "nukes": 0, "mmr": 40.61}}, "first_page_url": "https://camelotpnw.tech/api/v1/members?page=1", "from": 1, "last_page": 2, "last_page_url": "https://camelotpnw.tech/api/v1/members?page=2", "next_page_url": "https://camelotpnw.tech/api/v1/members?page=2", "path": "https://camelotpnw.tech/api/v1/members", "per_page": 50, "prev_page_url": null, "to": 50, "total": 66}{"current_page": 2, "data": {"0": {"id": 1397, "nID": 151633, "leader": "Phat", "nation": "Phat", "score": 1386, "cities": 11, "soldiers": 0, "tanks": 0, "planes": 990, "ships": 0, "steel": 51, "gas": 1547, "aluminum": 3307, "munitions": 1191, "money": 3258423, "food": 35344, "spies": 1, "uranium": 140, "inBK": 1, "hasSignedIn": 1, "missiles": 0, "nukes": 0, "mmr": 100}, "1": {"id": 1399, "nID": 157612, "leader": "Arthur Wellesley", "nation": "Empire of Britannia", "score": 1642, "cities": 12, "soldiers": 168122, "tanks": 0, "planes": 1080, "ships": 0, "steel": 77, "gas": 614, "aluminum": 3247, "munitions": 3153, "money": 999591, "food": 102475, "spies": 16, "uranium": 3836, "inBK": 1, "hasSignedIn": 1, "missiles": 1, "nukes": 0, "mmr": 33.96}, "2": {"id": 1400, "nID": 88504, "leader": "George Patton", "nation": "Pattongrad", "score": 1641, "cities": 11, "soldiers": 0, "tanks": 0, "planes": 933, "ships": 0, "steel": 1031, "gas": 5394, "aluminum": 3585, "munitions": 4173, "money": 3025406, "food": 44349, "spies": 43, "uranium": 1869, "inBK": 1, "hasSignedIn": 1, "missiles": 0, "nukes": 3, "mmr": 100}, "3": {"id": 1401, "nID": 178490, "leader": "Lils", "nation": "Phrythian", "score": 1525, "cities": 11, "soldiers": 105000, "tanks": 0, "planes": 990, "ships": 15, "steel": 806, "gas": 1715, "aluminum": 1273, "munitions": 1814, "money": 4663554, "food": 15534, "spies": 19, "uranium": 2067, "inBK": 1, "hasSignedIn": 1, "missiles": 0, "nukes": 0, "mmr": 100}, "4": {"id": 1402, "nID": 189305, "leader": "Chexelle", "nation": "Unnamed", "score": 1270, "cities": 8, "soldiers": 120000, "tanks": 2000, "planes": 720, "ships": 40, "steel": 1223, "gas": 999, "aluminum": 345, "munitions": 3391, "money": 2582051, "food": 1915, "spies": 59, "uranium": 960, "inBK": 1, "hasSignedIn": 1, "missiles": 0, "nukes": 0, "mmr": 100}, "5": {"id": 1403, "nID": 152544, "leader": "Pigoopi", "nation": "BaconTopia", "score": 1154, "cities": 12, "soldiers": 135168, "tanks": 0, "planes": 676, "ships": 0, "steel": 9, "gas": 3759, "aluminum": 2, "munitions": 3314, "money": 13248690, "food": 1129, "spies": 0, "uranium": 98, "inBK": 1, "hasSignedIn": 1, "missiles": 0, "nukes": 0, "mmr": 20.16}, "6": {"id": 1404, "nID": 173884, "leader": "Korey Lewis", "nation": "Moderate States of America", "score": 1151, "cities": 8, "soldiers": 120000, "tanks": 2000, "planes": 720, "ships": 40, "steel": 1207, "gas": 4726, "aluminum": 4044, "munitions": 15309, "money": 4889966, "food": 72311, "spies": 5, "uranium": 825, "inBK": 1, "hasSignedIn": 1, "missiles": 0, "nukes": 0, "mmr": 100}, "7": {"id": 1405, "nID": 10815, "leader": "Josh", "nation": "Gibraltar", "score": 2495, "cities": 17, "soldiers": 0, "tanks": 0, "planes": 1530, "ships": 0, "steel": 123, "gas": 4168, "aluminum": 5296, "munitions": 3397, "money": 27143953, "food": 19463, "spies": 50, "uranium": 125, "inBK": 1, "hasSignedIn": 1, "missiles": 0, "nukes": 0, "mmr": 32.15}, "8": {"id": 1407, "nID": 187431, "leader": "Vincent Demeyere", "nation": "Demeyere", "score": 1223, "cities": 8, "soldiers": 117000, "tanks": 972, "planes": 712, "ships": 45, "steel": 46, "gas": 1554, "aluminum": 11, "munitions": 1494, "money": 2625225, "food": 28683, "spies": 60, "uranium": 154, "inBK": 1, "hasSignedIn": 1, "missiles": 0, "nukes": 0, "mmr": 100}, "9": {"id": 1408, "nID": 161586, "leader": "Ssix", "nation": "The Free Hong kong", "score": 581, "cities": 8, "soldiers": 15759, "tanks": 0, "planes": 0, "ships": 1, "steel": 139, "gas": 2209, "aluminum": 2, "munitions": 157, "money": 7508673, "food": 6136, "spies": 4, "uranium": 725, "inBK": 1, "hasSignedIn": 1, "missiles": 0, "nukes": 0, "mmr": 100}, "10": {"id": 1409, "nID": 158082, "leader": "John Zoidberg", "nation": "House of Julii", "score": 452, "cities": 3, "soldiers": 41496, "tanks": 1492, "planes": 262, "ships": 8, "steel": 3946, "gas": 1758, "aluminum": 2172, "munitions": 4056, "money": 121746452, "food": 49163, "spies": 50, "uranium": 1900, "inBK": 1, "hasSignedIn": 1, "missiles": 0, "nukes": 0, "mmr": 100}, "11": {"id": 1410, "nID": 192654, "leader": "Scissors", "nation": "Falctican Peoples Empire", "score": 936, "cities": 8, "soldiers": 117000, "tanks": 1064, "planes": 396, "ships": 25, "steel": 11, "gas": 422, "aluminum": 965, "munitions": 0, "money": 11977113, "food": 14541, "spies": 15, "uranium": 438, "inBK": 1, "hasSignedIn": 1, "missiles": 0, "nukes": 0, "mmr": 80}, "12": {"id": 1411, "nID": 192754, "leader": "Alphalion", "nation": "The Stratosphere Islands", "score": 1020, "cities": 9, "soldiers": 101941, "tanks": 1049, "planes": 287, "ships": 22, "steel": 0, "gas": 385, "aluminum": 1080, "munitions": 666, "money": 186601, "food": 38050, "spies": 5, "uranium": 781, "inBK": 1, "hasSignedIn": 1, "missiles": 0, "nukes": 0, "mmr": 75}, "13": {"id": 1412, "nID": 192583, "leader": "Jaspy", "nation": "Galatical States", "score": 1243, "cities": 8, "soldiers": 119716, "tanks": 2256, "planes": 702, "ships": 31, "steel": 151, "gas": 1041, "aluminum": 285, "munitions": 1227, "money": 37851247, "food": 53464, "spies": 23, "uranium": 2828, "inBK": 1, "hasSignedIn": 1, "missiles": 0, "nukes": 0, "mmr": 100}, "14": {"id": 1413, "nID": 192989, "leader": "Oxyngin", "nation": "Kelwan", "score": 1231, "cities": 10, "soldiers": 149733, "tanks": 2249, "planes": 526, "ships": 34, "steel": 159, "gas": 564, "aluminum": 4, "munitions": 1710, "money": 9694519, "food": 8748, "spies": 14, "uranium": 410, "inBK": 1, "hasSignedIn": 1, "missiles": 0, "nukes": 0, "mmr": 100}, "15": {"id": 1414, "nID": 192655, "leader": "Jsorbana", "nation": "Judea", "score": 899, "cities": 8, "soldiers": 116505, "tanks": 1659, "planes": 311, "ships": 25, "steel": 19, "gas": 1394, "aluminum": 72, "munitions": 2, "money": 18556600, "food": 0, "spies": 6, "uranium": 502, "inBK": 1, "hasSignedIn": 1, "missiles": 0, "nukes": 0, "mmr": 95}}, "first_page_url": "https://camelotpnw.tech/api/v1/members?page=1", "from": 51, "last_page": 2, "last_page_url": "https://camelotpnw.tech/api/v1/members?page=2", "next_page_url": null, "path": "https://camelotpnw.tech/api/v1/members", "per_page": 50, "prev_page_url": "https://camelotpnw.tech/api/v1/members?page=1", "to": 66, "total": 66}