{"current_page": 1, "data": {"0": {"id": 190, "nID": 19635, "leader": "manas", "nation": "odisha", "score": 3021, "cities": 23, "soldiers": 0, "tanks": 0, "planes": 2052, "ships": 0, "steel": 18809, "gas": 1720, "aluminum": 4781, "munitions": 17454, "money": 10504545, "food": 308105, "spies": 60, "uranium": 8367, "inBK": 1, "hasSignedIn": 1, "missiles": 0, "nukes": 0, "mmr": 68.67}, "1": {"id": 607, "nID": 55073, "leader": "Michael Allen", "nation": "The Florence Republic", "score": 2720, "cities": 18, "soldiers": 0, "tanks": 0, "planes": 1620, "ships": 0, "steel": 4306, "gas": 3183, "aluminum": 11847, "munitions": 13889, "money": 27497212, "food": 115288, "spies": 60, "uranium": 1630, "inBK": 1, "hasSignedIn": 1, "missiles": 0, "nukes": 0, "mmr": 60.74}, "2": {"id": 627, "nID": 53723, "leader": "Douglas MacArthur", "nation": "America V2", "score": 2668, "cities": 18, "soldiers": 0, "tanks": 0, "planes": 1620, "ships": 0, "steel": 3121, "gas": 8614, "aluminum": 4049, "munitions": 10246, "money": 105662099, "food": 87220, "spies": 60, "uranium": 1811, "inBK": 1, "hasSignedIn": 1, "missiles": 0, "nukes": 0, "mmr": 50.75}, "3": {"id": 848, "nID": 82463, "leader": "Messi", "nation": "Ikstova", "score": 2520, "cities": 17, "soldiers": 0, "tanks": 0, "planes": 1530, "ships": 0, "steel": 3297, "gas": 5767, "aluminum": 10675, "munitions": 2403, "money": 37210876, "food": 69920, "spies": 13, "uranium": 277, "inBK": 1, "hasSignedIn": 1, "missiles": 1, "nukes": 0, "mmr": 52.35}, "4": {"id": 898, "nID": 86779, "leader": "Georgius Maximus", "nation": "New Eastern Roman Empire", "score": 3175, "cities": 21, "soldiers": 0, "tanks": 0, "planes": 1890, "ships": 0, "steel": 1821, "gas": 12749, "aluminum": 11810, "munitions": 9130, "money": 35640481, "food": 81223, "spies": 33, "uranium": 1342, "inBK": 1, "hasSignedIn": 1, "missiles": 0, "nukes": 0, "mmr": 62.95}, "5": {"id": 1004, "nID": 80762, "leader": "Shmurda", "nation": "Slavistan", "score": 2455, "cities": 18, "soldiers": 0, "tanks": 0, "planes": 1620, "ships": 0, "steel": 26155, "gas": 4219, "aluminum": 41634, "munitions": 3659, "money": 187807623, "food": 181309, "spies": 27, "uranium": 4667, "inBK": 1, "hasSignedIn": 1, "missiles": 0, "nukes": 0, "mmr": 70.5}, "6": {"id": 1014, "nID": 86901, "leader": "Goodoboy", "nation": "Lexington", "score": 2710, "cities": 18, "soldiers": 0, "tanks": 0, "planes": 1620, "ships": 0, "steel": 7771, "gas": 8629, "aluminum": 5515, "munitions": 8309, "money": 4288089, "food": 214645, "spies": 60, "uranium": 5316, "inBK": 1, "hasSignedIn": 1, "missiles": 10, "nukes": 0, "mmr": 57.89}, "7": {"id": 1021, "nID": 99082, "leader": "Joe I", "nation": "The Kingdom of Nowhere", "score": 2455, "cities": 18, "soldiers": 0, "tanks": 0, "planes": 1620, "ships": 0, "steel": 17020, "gas": 8100, "aluminum": 9553, "munitions": 2134, "money": 156633566, "food": 11632, "spies": 9, "uranium": 1388, "inBK": 1, "hasSignedIn": 1, "missiles": 0, "nukes": 0, "mmr": 64.29}, "8": {"id": 1042, "nID": 89441, "leader": "Evlar", "nation": "Evlamican Empire", "score": 2867, "cities": 18, "soldiers": 270000, "tanks": 0, "planes": 1620, "ships": 36, "steel": 656, "gas": 7341, "aluminum": 8384, "munitions": 13221, "money": 35778435, "food": 12759, "spies": 25, "uranium": 2872, "inBK": 1, "hasSignedIn": 1, "missiles": 0, "nukes": 0, "mmr": 52.88}, "9": {"id": 1051, "nID": 92983, "leader": "Forseti92", "nation": "NESU", "score": 2724, "cities": 18, "soldiers": 0, "tanks": 0, "planes": 1620, "ships": 12, "steel": 1836, "gas": 3459, "aluminum": 3044, "munitions": 10354, "money": 111939456, "food": 0, "spies": 36, "uranium": 149, "inBK": 1, "hasSignedIn": 1, "missiles": 0, "nukes": 0, "mmr": 27.03}, "10": {"id": 1054, "nID": 106810, "leader": "lance armstrong", "nation": "sklandia", "score": 1142, "cities": 18, "soldiers": 0, "tanks": 0, "planes": 210, "ships": 0, "steel": 13, "gas": 336, "aluminum": 1843, "munitions": 165, "money": 1224421, "food": 0, "spies": 0, "uranium": 0, "inBK": 1, "hasSignedIn": 1, "missiles": 0, "nukes": 0, "mmr": 3.15}, "11": {"id": 1068, "nID": 80836, "leader": "Taco", "nation": "Taco Land", "score": 3030, "cities": 20, "soldiers": 0, "tanks": 0, "planes": 1800, "ships": 0, "steel": 163, "gas": 2280, "aluminum": 2331, "munitions": 2825, "money": 12527013, "food": 23750, "spies": 9, "uranium": 132, "inBK": 1, "hasSignedIn": 1, "missiles": 0, "nukes": 0, "mmr": 16.51}, "12": {"id": 1104, "nID": 33644, "leader": "Whiskerz", "nation": "Arfcom", "score": 3245, "cities": 21, "soldiers": 0, "tanks": 0, "planes": 1890, "ships": 0, "steel": 1301, "gas": 6397, "aluminum": 13796, "munitions": 7334, "money": 11895132, "food": 211175, "spies": 60, "uranium": 5123, "inBK": 1, "hasSignedIn": 1, "missiles": 0, "nukes": 6, "mmr": 53.87}, "13": {"id": 1109, "nID": 110520, "leader": "Siegfred the Free", "nation": "Freemen", "score": 2845, "cities": 19, "soldiers": 0, "tanks": 0, "planes": 1710, "ships": 0, "steel": 20, "gas": 10799, "aluminum": 557, "munitions": 10000, "money": 23814032, "food": 49174, "spies": 50, "uranium": 2772, "inBK": 1, "hasSignedIn": 1, "missiles": 0, "nukes": 0, "mmr": 43.51}, "14": {"id": 1111, "nID": 55556, "leader": "Soter", "nation": "Kingdom of Svearmark", "score": 1134, "cities": 12, "soldiers": 75992, "tanks": 89, "planes": 380, "ships": 10, "steel": 474, "gas": 281, "aluminum": 1, "munitions": 6255, "money": 10064280, "food": 7273, "spies": 8, "uranium": 201, "inBK": 1, "hasSignedIn": 1, "missiles": 0, "nukes": 0, "mmr": 22.84}, "15": {"id": 1142, "nID": 106704, "leader": "Sauce Master", "nation": "Urasaturn", "score": 2825, "cities": 19, "soldiers": 0, "tanks": 0, "planes": 1710, "ships": 0, "steel": 95, "gas": 8165, "aluminum": 5903, "munitions": 27807, "money": 103196665, "food": 0, "spies": 60, "uranium": 1681, "inBK": 1, "hasSignedIn": 1, "missiles": 0, "nukes": 0, "mmr": 48.92}, "16": {"id": 1161, "nID": 116953, "leader": "Kevin Li", "nation": "SK Telecom T1", "score": 3010, "cities": 20, "soldiers": 0, "tanks": 0, "planes": 1800, "ships": 0, "steel": 1540, "gas": 4632, "aluminum": 10784, "munitions": 15492, "money": 46473258, "food": 85607, "spies": 60, "uranium": 1125, "inBK": 1, "hasSignedIn": 1, "missiles": 0, "nukes": 0, "mmr": 58.12}, "17": {"id": 1183, "nID": 126185, "leader": "FROG5TAR", "nation": "Frogtopia", "score": 2170, "cities": 16, "soldiers": 0, "tanks": 0, "planes": 1440, "ships": 0, "steel": 1494, "gas": 125, "aluminum": 8148, "munitions": 0, "money": 10426887, "food": 23341, "spies": 23, "uranium": 319, "inBK": 1, "hasSignedIn": 1, "missiles": 0, "nukes": 0, "mmr": 28.47}, "18": {"id": 1213, "nID": 133511, "leader": "shrek", "nation": "Country Ball Comics", "score": 2700, "cities": 18, "soldiers": 0, "tanks": 0, "planes": 1620, "ships": 0, "steel": 18000, "gas": 15132, "aluminum": 18001, "munitions": 9000, "money": 909568, "food": 20004, "spies": 60, "uranium": 235, "inBK": 1, "hasSignedIn": 1, "missiles": 0, "nukes": 0, "mmr": 84.35}, "19": {"id": 1273, "nID": 149414, "leader": "Woof", "nation": "Woof", "score": 1625, "cities": 11, "soldiers": 0, "tanks": 0, "planes": 990, "ships": 0, "steel": 2053, "gas": 625, "aluminum": 1010, "munitions": 2116, "money": 7528459, "food": 15933, "spies": 2, "uranium": 155, "inBK": 1, "hasSignedIn": 1, "missiles": 0, "nukes": 0, "mmr": 100}, "20": {"id": 1288, "nID": 2813, "leader": "Saeton", "nation": "Icebergia", "score": 3482, "cities": 25, "soldiers": 0, "tanks": 0, "planes": 2250, "ships": 0, "steel": 1638, "gas": 11636, "aluminum": 109, "munitions": 15928, "money": 82840088, "food": 159263, "spies": 57, "uranium": 351, "inBK": 1, "hasSignedIn": 1, "missiles": 0, "nukes": 0, "mmr": 40.72}, "21": {"id": 1334, "nID": 168248, "leader": "jfromstate", "nation": "Justanotherstan", "score": 1735, "cities": 10, "soldiers": 150000, "tanks": 0, "planes": 900, "ships": 100, "steel": 15, "gas": 1293, "aluminum": 4522, "munitions": 1167, "money": 18846848, "food": 49, "spies": 38, "uranium": 38, "inBK": 1, "hasSignedIn": 1, "missiles": 0, "nukes": 0, "mmr": 100}, "22": {"id": 1364, "nID": 181658, "leader": "Meow The Tabby Cat", "nation": "Meow Meow Republic", "score": 1625, "cities": 11, "soldiers": 0, "tanks": 0, "planes": 990, "ships": 0, "steel": 9419, "gas": 5732, "aluminum": 9659, "munitions": 11560, "money": 209314819, "food": 45301, "spies": 60, "uranium": 1615, "inBK": 1, "hasSignedIn": 1, "missiles": 0, "nukes": 0, "mmr": 100}, "23": {"id": 1366, "nID": 59381, "leader": "Epimetheus", "nation": "Prometheus", "score": 3404, "cities": 23, "soldiers": 0, "tanks": 0, "planes": 2070, "ships": 0, "steel": 395, "gas": 25556, "aluminum": 2935, "munitions": 2529, "money": 114625353, "food": 42562, "spies": 36, "uranium": 1372, "inBK": 1, "hasSignedIn": 1, "missiles": 0, "nukes": 0, "mmr": 42.94}, "24": {"id": 1367, "nID": 128537, "leader": "Arthur 1", "nation": "Camelot 1", "score": 3260, "cities": 22, "soldiers": 0, "tanks": 0, "planes": 1980, "ships": 0, "steel": 2648, "gas": 1980, "aluminum": 1563, "munitions": 6097, "money": 7170723, "food": 20780, "spies": 6, "uranium": 1643, "inBK": 1, "hasSignedIn": 1, "missiles": 0, "nukes": 0, "mmr": 32.27}, "25": {"id": 1368, "nID": 164003, "leader": "Nando", "nation": "Leolandia", "score": 3280, "cities": 22, "soldiers": 0, "tanks": 0, "planes": 1980, "ships": 0, "steel": 369, "gas": 5800, "aluminum": 5094, "munitions": 4577, "money": 19214024, "food": 231788, "spies": 49, "uranium": 1236, "inBK": 1, "hasSignedIn": 1, "missiles": 0, "nukes": 0, "mmr": 36.24}, "26": {"id": 1369, "nID": 12832, "leader": "Kraftus", "nation": "Dept of Defense", "score": 2719, "cities": 17, "soldiers": 249000, "tanks": 500, "planes": 1494, "ships": 120, "steel": 268, "gas": 3070, "aluminum": 158, "munitions": 10966, "money": 2294251, "food": 18756, "spies": 6, "uranium": 144, "inBK": 1, "hasSignedIn": 1, "missiles": 1, "nukes": 1, "mmr": 33.26}, "27": {"id": 1370, "nID": 82501, "leader": "Forethought", "nation": "Dabsion", "score": 3010, "cities": 20, "soldiers": 0, "tanks": 0, "planes": 1800, "ships": 0, "steel": 172, "gas": 3861, "aluminum": 8918, "munitions": 3618, "money": 44139373, "food": 9386, "spies": 9, "uranium": 917, "inBK": 1, "hasSignedIn": 1, "missiles": 0, "nukes": 0, "mmr": 33.67}, "28": {"id": 1371, "nID": 109046, "leader": "Hatebi", "nation": "The Overthere", "score": 2716, "cities": 16, "soldiers": 240000, "tanks": 0, "planes": 1440, "ships": 50, "steel": 3465, "gas": 1048, "aluminum": 3788, "munitions": 2480, "money": 326856214, "food": 160235, "spies": 50, "uranium": 2237, "inBK": 1, "hasSignedIn": 1, "missiles": 0, "nukes": 0, "mmr": 38.29}, "29": {"id": 1373, "nID": 119256, "leader": "Fee1s", "nation": "United demorcratic sates", "score": 2229, "cities": 17, "soldiers": 0, "tanks": 0, "planes": 1328, "ships": 1, "steel": 1273, "gas": 4692, "aluminum": 1889, "munitions": 4329, "money": 113951417, "food": 39624, "spies": 8, "uranium": 402, "inBK": 1, "hasSignedIn": 1, "missiles": 5, "nukes": 0, "mmr": 34.02}, "30": {"id": 1374, "nID": 151004, "leader": "Seven", "nation": "Saint Augustine", "score": 2490, "cities": 16, "soldiers": 240000, "tanks": 0, "planes": 1440, "ships": 0, "steel": 37, "gas": 3848, "aluminum": 3350, "munitions": 4420, "money": 16619265, "food": 33880, "spies": 30, "uranium": 1021, "inBK": 1, "hasSignedIn": 1, "missiles": 0, "nukes": 0, "mmr": 38.33}, "31": {"id": 1375, "nID": 126928, "leader": "Randomdud", "nation": "New United States Of America", "score": 2370, "cities": 16, "soldiers": 0, "tanks": 0, "planes": 1440, "ships": 0, "steel": 78, "gas": 15, "aluminum": 49, "munitions": 3384, "money": 69699183, "food": 55701, "spies": 0, "uranium": 376, "inBK": 1, "hasSignedIn": 1, "missiles": 0, "nukes": 0, "mmr": 15.85}, "32": {"id": 1377, "nID": 76671, "leader": "Yang_Cheng", "nation": "Democratic Shanghai", "score": 2825, "cities": 19, "soldiers": 0, "tanks": 0, "planes": 1710, "ships": 0, "steel": 1751, "gas": 8700, "aluminum": 6092, "munitions": 1000, "money": 60242542, "food": 0, "spies": 10, "uranium": 248, "inBK": 1, "hasSignedIn": 1, "missiles": 0, "nukes": 0, "mmr": 26.45}, "33": {"id": 1378, "nID": 136331, "leader": "Thor", "nation": "Asgard", "score": 2225, "cities": 15, "soldiers": 0, "tanks": 0, "planes": 1350, "ships": 0, "steel": 104, "gas": 2737, "aluminum": 5325, "munitions": 3735, "money": 22796260, "food": 5193, "spies": 7, "uranium": 173, "inBK": 1, "hasSignedIn": 1, "missiles": 0, "nukes": 0, "mmr": 26.88}, "34": {"id": 1379, "nID": 49033, "leader": "Democratic Pakistan", "nation": "Democratic Pakistan", "score": 2386, "cities": 17, "soldiers": 0, "tanks": 0, "planes": 1341, "ships": 5, "steel": 5855, "gas": 4738, "aluminum": 13207, "munitions": 1829, "money": 159577216, "food": 275717, "spies": 2, "uranium": 13952, "inBK": 1, "hasSignedIn": 1, "missiles": 0, "nukes": 0, "mmr": 62.77}, "35": {"id": 1380, "nID": 129313, "leader": "Catman", "nation": "Catland", "score": 2004, "cities": 15, "soldiers": 0, "tanks": 0, "planes": 1350, "ships": 0, "steel": 181, "gas": 2019, "aluminum": 3427, "munitions": 1011, "money": 25437854, "food": 37464, "spies": 3, "uranium": 3, "inBK": 1, "hasSignedIn": 1, "missiles": 0, "nukes": 0, "mmr": 18.4}, "36": {"id": 1381, "nID": 147649, "leader": "Kid Cudi", "nation": "Kudiland", "score": 2020, "cities": 14, "soldiers": 0, "tanks": 0, "planes": 1260, "ships": 0, "steel": 2760, "gas": 2529, "aluminum": 3696, "munitions": 3681, "money": 7042230, "food": 130760, "spies": 0, "uranium": 307, "inBK": 1, "hasSignedIn": 1, "missiles": 0, "nukes": 0, "mmr": 34.78}, "37": {"id": 1382, "nID": 130023, "leader": "Juan Hernandez", "nation": "Costa Rica", "score": 1972, "cities": 14, "soldiers": 0, "tanks": 0, "planes": 1260, "ships": 0, "steel": 328, "gas": 3377, "aluminum": 2335, "munitions": 4188, "money": 12959402, "food": 9948, "spies": 4, "uranium": 45, "inBK": 1, "hasSignedIn": 1, "missiles": 0, "nukes": 0, "mmr": 23.56}, "38": {"id": 1383, "nID": 115598, "leader": "Bill Rice", "nation": "Talathalas", "score": 2080, "cities": 14, "soldiers": 0, "tanks": 0, "planes": 1260, "ships": 0, "steel": 0, "gas": 6765, "aluminum": 4583, "munitions": 0, "money": 29207970, "food": 20576, "spies": 59, "uranium": 670, "inBK": 1, "hasSignedIn": 1, "missiles": 0, "nukes": 0, "mmr": 34.4}, "39": {"id": 1384, "nID": 174023, "leader": "Robinson", "nation": "Paradise", "score": 1526, "cities": 13, "soldiers": 195000, "tanks": 525, "planes": 0, "ships": 34, "steel": 1186, "gas": 4266, "aluminum": 10770, "munitions": 1409, "money": 17128224, "food": 66831, "spies": 60, "uranium": 1867, "inBK": 1, "hasSignedIn": 1, "missiles": 0, "nukes": 0, "mmr": 49.32}, "40": {"id": 1385, "nID": 175039, "leader": "Ray", "nation": "Xhunterx", "score": 2060, "cities": 14, "soldiers": 0, "tanks": 0, "planes": 1260, "ships": 0, "steel": 2, "gas": 8288, "aluminum": 6548, "munitions": 10377, "money": 4867912, "food": 97255, "spies": 50, "uranium": 851, "inBK": 1, "hasSignedIn": 1, "missiles": 0, "nukes": 0, "mmr": 63.19}, "41": {"id": 1386, "nID": 152232, "leader": "The USA", "nation": "United Cats of America", "score": 2700, "cities": 18, "soldiers": 0, "tanks": 0, "planes": 1620, "ships": 0, "steel": 4000, "gas": 10000, "aluminum": 25660, "munitions": 10070, "money": 1421642, "food": 1041503, "spies": 58, "uranium": 1246, "inBK": 1, "hasSignedIn": 1, "missiles": 0, "nukes": 0, "mmr": 68.43}, "42": {"id": 1387, "nID": 155829, "leader": "Frigg", "nation": "Vahalla", "score": 1942, "cities": 10, "soldiers": 138000, "tanks": 4750, "planes": 810, "ships": 95, "steel": 5808, "gas": 3834, "aluminum": 4114, "munitions": 397, "money": 29656507, "food": 21219, "spies": 25, "uranium": 2108, "inBK": 1, "hasSignedIn": 1, "missiles": 6, "nukes": 0, "mmr": 100}, "43": {"id": 1388, "nID": 143884, "leader": "Pheonix331", "nation": "Ancients", "score": 1935, "cities": 13, "soldiers": 0, "tanks": 0, "planes": 1170, "ships": 0, "steel": 1616, "gas": 4729, "aluminum": 6173, "munitions": 1882, "money": 17608475, "food": 41111, "spies": 19, "uranium": 935, "inBK": 1, "hasSignedIn": 1, "missiles": 0, "nukes": 0, "mmr": 43.96}, "44": {"id": 1389, "nID": 147442, "leader": "Kassandra", "nation": "Greece AC", "score": 1713, "cities": 13, "soldiers": 0, "tanks": 0, "planes": 1170, "ships": 0, "steel": 0, "gas": 203, "aluminum": 3606, "munitions": 341, "money": 10728806, "food": 1511, "spies": 1, "uranium": 160, "inBK": 1, "hasSignedIn": 1, "missiles": 0, "nukes": 0, "mmr": 10.28}, "45": {"id": 1390, "nID": 143002, "leader": "BOB the First", "nation": "GMBOB", "score": 1736, "cities": 15, "soldiers": 79444, "tanks": 0, "planes": 636, "ships": 0, "steel": 3116, "gas": 3235, "aluminum": 10639, "munitions": 1720, "money": 36714825, "food": 413786, "spies": 7, "uranium": 731, "inBK": 1, "hasSignedIn": 1, "missiles": 0, "nukes": 0, "mmr": 50.01}, "46": {"id": 1391, "nID": 150945, "leader": "Lukas Langeheuvel", "nation": "Talamh an Eisc", "score": 1760, "cities": 12, "soldiers": 0, "tanks": 0, "planes": 1080, "ships": 0, "steel": 3635, "gas": 5208, "aluminum": 4585, "munitions": 10554, "money": 478002, "food": 8074, "spies": 58, "uranium": 604, "inBK": 1, "hasSignedIn": 1, "missiles": 0, "nukes": 0, "mmr": 66.29}, "47": {"id": 1392, "nID": 134401, "leader": "warkeeper", "nation": "Personal Defense Force", "score": 1730, "cities": 16, "soldiers": 0, "tanks": 0, "planes": 198, "ships": 0, "steel": 0, "gas": 801, "aluminum": 1, "munitions": 1000, "money": 2303438, "food": 14565, "spies": 50, "uranium": 89, "inBK": 1, "hasSignedIn": 1, "missiles": 0, "nukes": 0, "mmr": 8.14}, "48": {"id": 1393, "nID": 183140, "leader": "Aero", "nation": "Xrossland", "score": 1525, "cities": 13, "soldiers": 0, "tanks": 0, "planes": 835, "ships": 0, "steel": 811, "gas": 3166, "aluminum": 7201, "munitions": 4357, "money": 56183281, "food": 0, "spies": 1, "uranium": 217, "inBK": 1, "hasSignedIn": 1, "missiles": 0, "nukes": 0, "mmr": 33.65}, "49": {"id": 1394, "nID": 155105, "leader": "Gravity", "nation": "Golden Beauty", "score": 1555, "cities": 12, "soldiers": 99000, "tanks": 0, "planes": 1062, "ships": 0, "steel": 6625, "gas": 2621, "aluminum": 1196, "munitions": 2276, "money": 3255658, "food": 6903, "spies": 0, "uranium": 108, "inBK": 1, "hasSignedIn": 1, "missiles": 0, "nukes": 0, "mmr": 41.14}}, "first_page_url": "https://camelotpnw.tech/api/v1/members?page=1", "from": 1, "last_page": 2, "last_page_url": "https://camelotpnw.tech/api/v1/members?page=2", "next_page_url": "https://camelotpnw.tech/api/v1/members?page=2", "path": "https://camelotpnw.tech/api/v1/members", "per_page": 50, "prev_page_url": null, "to": 50, "total": 66}
{"current_page": 2, "data": {"0": {"id": 1397, "nID": 151633, "leader": "Phat", "nation": "Phat", "score": 1405, "cities": 11, "soldiers": 0, "tanks": 0, "planes": 990, "ships": 0, "steel": 59, "gas": 1798, "aluminum": 3455, "munitions": 1384, "money": 4317086, "food": 50094, "spies": 1, "uranium": 269, "inBK": 1, "hasSignedIn": 1, "missiles": 0, "nukes": 0, "mmr": 100}, "1": {"id": 1399, "nID": 157612, "leader": "Arthur Wellesley", "nation": "Empire of Britannia", "score": 1607, "cities": 12, "soldiers": 108122, "tanks": 0, "planes": 1080, "ships": 0, "steel": 773, "gas": 3537, "aluminum": 1292, "munitions": 4499, "money": 15011702, "food": 33886, "spies": 22, "uranium": 304, "inBK": 1, "hasSignedIn": 0, "missiles": 1, "nukes": 0, "mmr": 35.49}, "2": {"id": 1400, "nID": 88504, "leader": "George Patton", "nation": "Pattongrad", "score": 1641, "cities": 11, "soldiers": 0, "tanks": 0, "planes": 933, "ships": 0, "steel": 1031, "gas": 4868, "aluminum": 2411, "munitions": 4887, "money": 1472031, "food": 56513, "spies": 37, "uranium": 1974, "inBK": 1, "hasSignedIn": 1, "missiles": 0, "nukes": 3, "mmr": 100}, "3": {"id": 1401, "nID": 178490, "leader": "Lils", "nation": "Phrythian", "score": 1571, "cities": 11, "soldiers": 105000, "tanks": 0, "planes": 990, "ships": 9, "steel": 883, "gas": 933, "aluminum": 2, "munitions": 895, "money": 20921601, "food": 2463, "spies": 15, "uranium": 56, "inBK": 1, "hasSignedIn": 1, "missiles": 0, "nukes": 0, "mmr": 100}, "4": {"id": 1402, "nID": 189305, "leader": "Chexelle", "nation": "Unnamed", "score": 1270, "cities": 8, "soldiers": 120000, "tanks": 2000, "planes": 720, "ships": 40, "steel": 1223, "gas": 999, "aluminum": 345, "munitions": 3391, "money": 4094855, "food": 8358, "spies": 56, "uranium": 1037, "inBK": 1, "hasSignedIn": 1, "missiles": 0, "nukes": 0, "mmr": 100}, "5": {"id": 1403, "nID": 152544, "leader": "Pigoopi", "nation": "BaconTopia", "score": 1154, "cities": 12, "soldiers": 135168, "tanks": 0, "planes": 676, "ships": 0, "steel": 9, "gas": 3759, "aluminum": 2, "munitions": 3314, "money": 11092500, "food": 5376, "spies": 0, "uranium": 156, "inBK": 1, "hasSignedIn": 1, "missiles": 0, "nukes": 0, "mmr": 21.8}, "6": {"id": 1404, "nID": 173884, "leader": "Korey Lewis", "nation": "Moderate States of America", "score": 1151, "cities": 8, "soldiers": 120000, "tanks": 2000, "planes": 720, "ships": 40, "steel": 1207, "gas": 4726, "aluminum": 4044, "munitions": 14661, "money": 4105956, "food": 76324, "spies": 5, "uranium": 873, "inBK": 1, "hasSignedIn": 1, "missiles": 0, "nukes": 0, "mmr": 100}, "7": {"id": 1405, "nID": 10815, "leader": "Josh", "nation": "Gibraltar", "score": 2495, "cities": 17, "soldiers": 0, "tanks": 0, "planes": 1530, "ships": 0, "steel": 123, "gas": 4168, "aluminum": 5296, "munitions": 3397, "money": 12700774, "food": 8057, "spies": 42, "uranium": 38, "inBK": 1, "hasSignedIn": 1, "missiles": 0, "nukes": 0, "mmr": 28.42}, "8": {"id": 1407, "nID": 187431, "leader": "Vincent Demeyere", "nation": "Demeyere", "score": 1171, "cities": 8, "soldiers": 110451, "tanks": 572, "planes": 667, "ships": 45, "steel": 14, "gas": 887, "aluminum": 0, "munitions": 1215, "money": 5489888, "food": 34016, "spies": 50, "uranium": 131, "inBK": 1, "hasSignedIn": 1, "missiles": 0, "nukes": 0, "mmr": 80}, "9": {"id": 1408, "nID": 161586, "leader": "Ssix", "nation": "The Free Hong kong", "score": 581, "cities": 8, "soldiers": 18143, "tanks": 0, "planes": 0, "ships": 1, "steel": 67, "gas": 2185, "aluminum": 2, "munitions": 165, "money": 4595765, "food": 6931, "spies": 4, "uranium": 712, "inBK": 1, "hasSignedIn": 1, "missiles": 0, "nukes": 0, "mmr": 100}, "10": {"id": 1409, "nID": 158082, "leader": "John Zoidberg", "nation": "House of Julii", "score": 452, "cities": 3, "soldiers": 41496, "tanks": 1492, "planes": 262, "ships": 8, "steel": 3424, "gas": 1579, "aluminum": 2155, "munitions": 3518, "money": 110476850, "food": 42508, "spies": 50, "uranium": 1814, "inBK": 1, "hasSignedIn": 1, "missiles": 0, "nukes": 0, "mmr": 100}, "11": {"id": 1410, "nID": 192654, "leader": "Scissors", "nation": "Falctican Peoples Empire", "score": 936, "cities": 8, "soldiers": 117000, "tanks": 1064, "planes": 396, "ships": 25, "steel": 11, "gas": 409, "aluminum": 682, "munitions": 0, "money": 6333978, "food": 14163, "spies": 15, "uranium": 486, "inBK": 1, "hasSignedIn": 1, "missiles": 0, "nukes": 0, "mmr": 80}, "12": {"id": 1411, "nID": 192754, "leader": "Alphalion", "nation": "The Stratosphere Islands", "score": 1119, "cities": 9, "soldiers": 117265, "tanks": 1369, "planes": 362, "ships": 41, "steel": 175, "gas": 828, "aluminum": 0, "munitions": 1168, "money": 546271, "food": 33317, "spies": 20, "uranium": 340, "inBK": 1, "hasSignedIn": 1, "missiles": 0, "nukes": 0, "mmr": 80}, "13": {"id": 1412, "nID": 192583, "leader": "Jaspy", "nation": "Galatical States", "score": 1238, "cities": 8, "soldiers": 119942, "tanks": 2256, "planes": 702, "ships": 31, "steel": 201, "gas": 691, "aluminum": 209, "munitions": 229, "money": 28464940, "food": 39312, "spies": 16, "uranium": 2833, "inBK": 1, "hasSignedIn": 1, "missiles": 0, "nukes": 0, "mmr": 100}, "14": {"id": 1413, "nID": 192989, "leader": "Oxyngin", "nation": "Kelwan", "score": 1231, "cities": 10, "soldiers": 150000, "tanks": 2250, "planes": 526, "ships": 34, "steel": 0, "gas": 0, "aluminum": 0, "munitions": 0, "money": 0, "food": 0, "spies": null, "uranium": null, "inBK": 1, "hasSignedIn": 0, "missiles": 0, "nukes": 0, "mmr": 0}, "15": {"id": 1414, "nID": 192655, "leader": "Jsorbana", "nation": "Judea", "score": 893, "cities": 8, "soldiers": 103835, "tanks": 1659, "planes": 311, "ships": 25, "steel": 0, "gas": 0, "aluminum": 0, "munitions": 0, "money": 0, "food": 0, "spies": null, "uranium": null, "inBK": 1, "hasSignedIn": 0, "missiles": 0, "nukes": 0, "mmr": 0}}, "first_page_url": "https://camelotpnw.tech/api/v1/members?page=1", "from": 51, "last_page": 2, "last_page_url": "https://camelotpnw.tech/api/v1/members?page=2", "next_page_url": null, "path": "https://camelotpnw.tech/api/v1/members", "per_page": 50, "prev_page_url": "https://camelotpnw.tech/api/v1/members?page=1", "to": 66, "total": 66}